05242022010520220106
0248302001
0250001001
0252403001
0250621001
0374561001
0375170001
0584946001
0584128002
0584060001
0131144001
0158956002
0152066001
0131318001
0131086001
0130633002
0130435001
0131037002
0131300001
0144642001
0195719001
0164210001
0393546001
0346999001
0309187001
0309179001
0346643001
0347120001
0393579001
0466094001
0523357001
0347005001
0393553001
0309195001
0108381001
0108373001
0108456001
0108530001
0108647001
0108654001
0108753001
0108787002
0108670001
0108498001
0108407001
0108704001
0322800001
0322701001
0322693001
0322768001
0322867001
0323584001
0322834001
0322743001
0322677001
0322545002
0325654001
0325647001
0325704001
0325878001
0325886001
0325738001
0325670001
0325613001
0325548001
0249300001
